
[
  { "id": "home", "label": "Dashboard", "icon": "tachometer-alt" },
  { "id": "projects", "label": "Projects", "icon": "th-large" },
  { "id": "lots", "label": "Lots", "icon": "code" },

  { "id": "subcontractorCompany", "label": "Subcontractor Company", "icon": "building" },
  { "id": "users", "label": "Users", "icon": "users" },
  { "id": "settings", "label": "Settings", "icon": "cog" }
]
